sep> f2-f3
sep> e7-e6
sep> g2-g4
sep>  |a|b|c|d|e|f|g|h| 
-+-+-+-+-+-+-+-+-+ 
8|r|n|b|q|k|b|n|r| 
-+-+-+-+-+-+-+-+-+ 
7|p|p|p|p| |p|p|p| 
-+-+-+-+-+-+-+-+-+ 
6| | | | |p| | | | 
-+-+-+-+-+-+-+-+-+ 
5| | | | | | | | | 
-+-+-+-+-+-+-+-+-+ 
4| | | | | | |P| | 
-+-+-+-+-+-+-+-+-+ 
3| | | | | |P| | | 
-+-+-+-+-+-+-+-+-+ 
2|P|P|P|P|P| | |P| 
-+-+-+-+-+-+-+-+-+ 
1|R|N|B|Q|K|B|N|R| 
-+-+-+-+-+-+-+-+-+ 
sep> Qd8-h4++
Black(Black) wins!
sep>  |a|b|c|d|e|f|g|h| 
-+-+-+-+-+-+-+-+-+ 
8|r|n|b| |k|b|n|r| 
-+-+-+-+-+-+-+-+-+ 
7|p|p|p|p| |p|p|p| 
-+-+-+-+-+-+-+-+-+ 
6| | | | |p| | | | 
-+-+-+-+-+-+-+-+-+ 
5| | | | | | | | | 
-+-+-+-+-+-+-+-+-+ 
4| | | | | | |P|q| 
-+-+-+-+-+-+-+-+-+ 
3| | | | | |P| | | 
-+-+-+-+-+-+-+-+-+ 
2|P|P|P|P|P| | |P| 
-+-+-+-+-+-+-+-+-+ 
1|R|N|B|Q|K|B|N|R| 
-+-+-+-+-+-+-+-+-+ 
sep> Bye!
