sep> Usage: draw [decline].
sep> White(White) suggests a draw.
sep>  |a|b|c|d|e|f|g|h| 
-+-+-+-+-+-+-+-+-+ 
8|r|n|b|q|k|b|n|r| 
-+-+-+-+-+-+-+-+-+ 
7|p|p|p|p|p|p|p|p| 
-+-+-+-+-+-+-+-+-+ 
6| | | | | | | | | 
-+-+-+-+-+-+-+-+-+ 
5| | | | | | | | | 
-+-+-+-+-+-+-+-+-+ 
4| | | | | | | | | 
-+-+-+-+-+-+-+-+-+ 
3| | | | | | | | | 
-+-+-+-+-+-+-+-+-+ 
2|P|P|P|P|P|P|P|P| 
-+-+-+-+-+-+-+-+-+ 
1|R|N|B|Q|K|B|N|R| 
-+-+-+-+-+-+-+-+-+ 
sep> Error: Unanswered draw offer.
sep> Usage: draw [decline].
sep> Black(Black) declined the draw offer.
sep> d2-d3
sep> Error: No draw offered.
sep> c7-c6
sep> Error: No draw offered.
sep> White(White) suggests a draw.
sep> The game ends in a draw.
sep>  |a|b|c|d|e|f|g|h| 
-+-+-+-+-+-+-+-+-+ 
8|r|n|b|q|k|b|n|r| 
-+-+-+-+-+-+-+-+-+ 
7|p|p| |p|p|p|p|p| 
-+-+-+-+-+-+-+-+-+ 
6| | |p| | | | | | 
-+-+-+-+-+-+-+-+-+ 
5| | | | | | | | | 
-+-+-+-+-+-+-+-+-+ 
4| | | | | | | | | 
-+-+-+-+-+-+-+-+-+ 
3| | | |P| | | | | 
-+-+-+-+-+-+-+-+-+ 
2|P|P|P| |P|P|P|P| 
-+-+-+-+-+-+-+-+-+ 
1|R|N|B|Q|K|B|N|R| 
-+-+-+-+-+-+-+-+-+ 
sep> Bye!
