sep>  |a|b|c|d|e|f|g|h| 
-+-+-+-+-+-+-+-+-+ 
8|r|n|b|q|k|b|n|r| 
-+-+-+-+-+-+-+-+-+ 
7|p|p|p|p|p|p|p|p| 
-+-+-+-+-+-+-+-+-+ 
6| | | | | | | | | 
-+-+-+-+-+-+-+-+-+ 
5| | | | | | | | | 
-+-+-+-+-+-+-+-+-+ 
4| | | | | | | | | 
-+-+-+-+-+-+-+-+-+ 
3| | | | | | | | | 
-+-+-+-+-+-+-+-+-+ 
2|P|P|P|P|P|P|P|P| 
-+-+-+-+-+-+-+-+-+ 
1|R|N|B|Q|K|B|N|R| 
-+-+-+-+-+-+-+-+-+ 
sep> a2-a4
sep>  |a|b|c|d|e|f|g|h| 
-+-+-+-+-+-+-+-+-+ 
8|r|n|b|q|k|b|n|r| 
-+-+-+-+-+-+-+-+-+ 
7|p|p|p|p|p|p|p|p| 
-+-+-+-+-+-+-+-+-+ 
6| | | | | | | | | 
-+-+-+-+-+-+-+-+-+ 
5| | | | | | | | | 
-+-+-+-+-+-+-+-+-+ 
4|P| | | | | | | | 
-+-+-+-+-+-+-+-+-+ 
3| | | | | | | | | 
-+-+-+-+-+-+-+-+-+ 
2| |P|P|P|P|P|P|P| 
-+-+-+-+-+-+-+-+-+ 
1|R|N|B|Q|K|B|N|R| 
-+-+-+-+-+-+-+-+-+ 
sep> a7-a6
sep>  |a|b|c|d|e|f|g|h| 
-+-+-+-+-+-+-+-+-+ 
8|r|n|b|q|k|b|n|r| 
-+-+-+-+-+-+-+-+-+ 
7| |p|p|p|p|p|p|p| 
-+-+-+-+-+-+-+-+-+ 
6|p| | | | | | | | 
-+-+-+-+-+-+-+-+-+ 
5| | | | | | | | | 
-+-+-+-+-+-+-+-+-+ 
4|P| | | | | | | | 
-+-+-+-+-+-+-+-+-+ 
3| | | | | | | | | 
-+-+-+-+-+-+-+-+-+ 
2| |P|P|P|P|P|P|P| 
-+-+-+-+-+-+-+-+-+ 
1|R|N|B|Q|K|B|N|R| 
-+-+-+-+-+-+-+-+-+ 
sep> Error: Own piece on target location.
sep>  |a|b|c|d|e|f|g|h| 
-+-+-+-+-+-+-+-+-+ 
8|r|n|b|q|k|b|n|r| 
-+-+-+-+-+-+-+-+-+ 
7| |p|p|p|p|p|p|p| 
-+-+-+-+-+-+-+-+-+ 
6|p| | | | | | | | 
-+-+-+-+-+-+-+-+-+ 
5| | | | | | | | | 
-+-+-+-+-+-+-+-+-+ 
4|P| | | | | | | | 
-+-+-+-+-+-+-+-+-+ 
3| | | | | | | | | 
-+-+-+-+-+-+-+-+-+ 
2| |P|P|P|P|P|P|P| 
-+-+-+-+-+-+-+-+-+ 
1|R|N|B|Q|K|B|N|R| 
-+-+-+-+-+-+-+-+-+ 
sep> Ra1-a3
sep>  |a|b|c|d|e|f|g|h| 
-+-+-+-+-+-+-+-+-+ 
8|r|n|b|q|k|b|n|r| 
-+-+-+-+-+-+-+-+-+ 
7| |p|p|p|p|p|p|p| 
-+-+-+-+-+-+-+-+-+ 
6|p| | | | | | | | 
-+-+-+-+-+-+-+-+-+ 
5| | | | | | | | | 
-+-+-+-+-+-+-+-+-+ 
4|P| | | | | | | | 
-+-+-+-+-+-+-+-+-+ 
3|R| | | | | | | | 
-+-+-+-+-+-+-+-+-+ 
2| |P|P|P|P|P|P|P| 
-+-+-+-+-+-+-+-+-+ 
1| |N|B|Q|K|B|N|R| 
-+-+-+-+-+-+-+-+-+ 
sep> Error: Incorrect target location.
sep>  |a|b|c|d|e|f|g|h| 
-+-+-+-+-+-+-+-+-+ 
8|r|n|b|q|k|b|n|r| 
-+-+-+-+-+-+-+-+-+ 
7| |p|p|p|p|p|p|p| 
-+-+-+-+-+-+-+-+-+ 
6|p| | | | | | | | 
-+-+-+-+-+-+-+-+-+ 
5| | | | | | | | | 
-+-+-+-+-+-+-+-+-+ 
4|P| | | | | | | | 
-+-+-+-+-+-+-+-+-+ 
3|R| | | | | | | | 
-+-+-+-+-+-+-+-+-+ 
2| |P|P|P|P|P|P|P| 
-+-+-+-+-+-+-+-+-+ 
1| |N|B|Q|K|B|N|R| 
-+-+-+-+-+-+-+-+-+ 
sep> sep> Error: target location not reachable.
sep>  |a|b|c|d|e|f|g|h| 
-+-+-+-+-+-+-+-+-+ 
8|r|n|b|q|k|b|n|r| 
-+-+-+-+-+-+-+-+-+ 
7| |p|p|p|p|p|p|p| 
-+-+-+-+-+-+-+-+-+ 
6|p| | | | | | | | 
-+-+-+-+-+-+-+-+-+ 
5| | | | | | | | | 
-+-+-+-+-+-+-+-+-+ 
4|P| | | | | | | | 
-+-+-+-+-+-+-+-+-+ 
3|R| | | | | | | | 
-+-+-+-+-+-+-+-+-+ 
2| |P|P|P|P|P|P|P| 
-+-+-+-+-+-+-+-+-+ 
1| |N|B|Q|K|B|N|R| 
-+-+-+-+-+-+-+-+-+ 
sep> Usage: move startlocation endlocation.
sep> Usage: move startlocation endlocation.
sep> Usage: move startlocation endlocation.
sep>  |a|b|c|d|e|f|g|h| 
-+-+-+-+-+-+-+-+-+ 
8|r|n|b|q|k|b|n|r| 
-+-+-+-+-+-+-+-+-+ 
7| |p|p|p|p|p|p|p| 
-+-+-+-+-+-+-+-+-+ 
6|p| | | | | | | | 
-+-+-+-+-+-+-+-+-+ 
5| | | | | | | | | 
-+-+-+-+-+-+-+-+-+ 
4|P| | | | | | | | 
-+-+-+-+-+-+-+-+-+ 
3|R| | | | | | | | 
-+-+-+-+-+-+-+-+-+ 
2| |P|P|P|P|P|P|P| 
-+-+-+-+-+-+-+-+-+ 
1| |N|B|Q|K|B|N|R| 
-+-+-+-+-+-+-+-+-+ 
sep> g7-g5
sep>  |a|b|c|d|e|f|g|h| 
-+-+-+-+-+-+-+-+-+ 
8|r|n|b|q|k|b|n|r| 
-+-+-+-+-+-+-+-+-+ 
7| |p|p|p|p|p| |p| 
-+-+-+-+-+-+-+-+-+ 
6|p| | | | | | | | 
-+-+-+-+-+-+-+-+-+ 
5| | | | | | |p| | 
-+-+-+-+-+-+-+-+-+ 
4|P| | | | | | | | 
-+-+-+-+-+-+-+-+-+ 
3|R| | | | | | | | 
-+-+-+-+-+-+-+-+-+ 
2| |P|P|P|P|P|P|P| 
-+-+-+-+-+-+-+-+-+ 
1| |N|B|Q|K|B|N|R| 
-+-+-+-+-+-+-+-+-+ 
sep> Ng1-f3
sep>  |a|b|c|d|e|f|g|h| 
-+-+-+-+-+-+-+-+-+ 
8|r|n|b|q|k|b|n|r| 
-+-+-+-+-+-+-+-+-+ 
7| |p|p|p|p|p| |p| 
-+-+-+-+-+-+-+-+-+ 
6|p| | | | | | | | 
-+-+-+-+-+-+-+-+-+ 
5| | | | | | |p| | 
-+-+-+-+-+-+-+-+-+ 
4|P| | | | | | | | 
-+-+-+-+-+-+-+-+-+ 
3|R| | | | |N| | | 
-+-+-+-+-+-+-+-+-+ 
2| |P|P|P|P|P|P|P| 
-+-+-+-+-+-+-+-+-+ 
1| |N|B|Q|K|B| |R| 
-+-+-+-+-+-+-+-+-+ 
sep> Error: Own piece on target location.
sep> Error: No piece at this location.
sep> Error: Piece on the way.
sep> Bf8-h6
sep>  |a|b|c|d|e|f|g|h| 
-+-+-+-+-+-+-+-+-+ 
8|r|n|b|q|k| |n|r| 
-+-+-+-+-+-+-+-+-+ 
7| |p|p|p|p|p| |p| 
-+-+-+-+-+-+-+-+-+ 
6|p| | | | | | |b| 
-+-+-+-+-+-+-+-+-+ 
5| | | | | | |p| | 
-+-+-+-+-+-+-+-+-+ 
4|P| | | | | | | | 
-+-+-+-+-+-+-+-+-+ 
3|R| | | | |N| | | 
-+-+-+-+-+-+-+-+-+ 
2| |P|P|P|P|P|P|P| 
-+-+-+-+-+-+-+-+-+ 
1| |N|B|Q|K|B| |R| 
-+-+-+-+-+-+-+-+-+ 
sep> Bye!
